Two-Way ANOVA project
…
library(readr)
cars <- read_csv("datacarrevise.csv")

## Parsed with column specification:
## cols(
##   year = col_double(),
##   price = col_double(),
##   mileage = col_double(),
##   zipcode = col_double(),
##   model = col_character()
## )

cars

## # A tibble: 300 x 5
##     year price mileage zipcode model 
##    <dbl> <dbl>   <dbl>   <dbl> <chr> 
##  1  2018  30.9    31.5   20010 BMW X3
##  2  2017  24.9    24.7   20010 BMW X3
##  3  2019  28.6    20.7   20010 BMW X3
##  4  2016  19.7    50.9   20010 BMW X3
##  5  2017  25.8    30.4   20010 BMW X3
##  6  2017  24.7    34.8   20010 BMW X3
##  7  2016  19.7    37.7   20010 BMW X3
##  8  2019  48.0    14.2   20010 BMW X3
##  9  2019  52.4    11.2   20010 BMW X3
## 10  2017  27.6    25.0   20010 BMW X3
## # ... with 290 more rows
…
Fit & Check condition

cars3 <- cars%>%
  mutate(age = 2020 - year)%>%
  mutate( zipcode = as.character(zipcode))
cars3

## # A tibble: 300 x 6
##     year price mileage zipcode model    age
##    <dbl> <dbl>   <dbl> <chr>   <chr>  <dbl>
##  1  2018  30.9    31.5 20010   BMW X3     2
##  2  2017  24.9    24.7 20010   BMW X3     3
##  3  2019  28.6    20.7 20010   BMW X3     1
##  4  2016  19.7    50.9 20010   BMW X3     4
##  5  2017  25.8    30.4 20010   BMW X3     3
##  6  2017  24.7    34.8 20010   BMW X3     3
##  7  2016  19.7    37.7 20010   BMW X3     4
##  8  2019  48.0    14.2 20010   BMW X3     1
##  9  2019  52.4    11.2 20010   BMW X3     1
## 10  2017  27.6    25.0 20010   BMW X3     3
## # ... with 290 more rows
…
